{
  "code": 200,
  "message": "success",
  "data": {
    "feeds": [
      {
        "type": "product",
        "id": "product_002",
        "name": "MacBook Pro 14英寸 M3 Max芯片",
        "price": 25999.00,
        "originalPrice": 27999.00,
        "imageUrl": "https://images.unsplash.com/photo-1569770218135-bea267ed7e84?w=400",
        "rating": 4.9,
        "sales": 856,
        "tags": ["新品", "高性能", "专业创作"]
      },
      {
        "type": "ad",
        "id": "ad_002",
        "title": "双11狂欢节，全场5折起",
        "subtitle": "错过再等一年，立即抢购",
        "imageUrl": "https://images.unsplash.com/photo-1607082352121-fa243f3dde32?w=400",
        "actionText": "立即抢购",
        "actionUrl": "https://shop.example.com/sale"
      },
      {
        "type": "news",
        "id": "news_003",
        "title": "ChatGPT-5即将发布，AI能力再次飞跃",
        "summary": "OpenAI官方透露ChatGPT-5正在最后的测试阶段，新版本在推理能力、多模态理解和创作能力方面都有显著提升...",
        "imageUrl": "https://images.unsplash.com/photo-1645680827507-9f392edae51c?w=400",
        "publishTime": "30分钟前",
        "source": "AI科技",
        "readCount": 5680
      },
      {
        "type": "video",
        "id": "video_003",
        "title": "Xcode 15新特性详解 - 提升开发效率的利器",
        "coverUrl": "https://images.unsplash.com/photo-1551033406-611cf9a28f67?w=400",
        "videoUrl": "https://example.com/xcode_video.mp4",
        "duration": "12:20",
        "playCount": 2156,
        "author": "开发者小王"
      },
      {
        "type": "userDynamic",
        "id": "dynamic_003",
        "userName": "产品经理老张",
        "userAvatar": "https://images.unsplash.com/photo-1560250097-0b93528c311a?w=80",
        "content": "产品迭代中最重要的是什么？我认为是用户反馈。今天收到了用户的建议邮件，虽然只有几行字，但每一条都很宝贵。用户的声音就是我们前进的方向。",
        "images": [],
        "publishTime": "6小时前",
        "commentList": [
          {
            "commentId": "comment_001",
            "userName": "张小明",
            "userId": "user_001",
            "content": "还是要多倾听用户的声音",
            "publishTime": "3小时前"
          },
          {
            "commentId": "comment_004",
            "userName": "赵小美",
            "userId": "user_004",
            "content": "保证一个正常迭代周期也很重要",
            "publishTime": "1小时前"
          }
        ],
        "likes": 89,
        "comments": 12
      },
      {
        "type": "image",
        "id": "img_003",
        "title": "城市夜景延时摄影",
        "imageUrls": [
          "https://images.unsplash.com/photo-1699872074472-963846fca564?w=400",
          "https://images.unsplash.com/photo-1633635485151-bb1ac6097418?w=400",
          "https://images.unsplash.com/photo-1603287348993-6dbee5a70add?w=400"
        ],
        "likes": 756,
        "comments": 34,
        "description": "用延时摄影记录城市的夜晚，车水马龙中的生活节奏"
      },
      {
        "type": "product",
        "id": "product_003",
        "name": "AirPods Pro 2代 USB-C充电版",
        "price": 1899.00,
        "originalPrice": 1999.00,
        "imageUrl": "https://images.unsplash.com/photo-1606841837239-c5a1a4a07af7?w=400",
        "rating": 4.7,
        "sales": 3420,
        "tags": ["主动降噪", "空间音频", "长续航"]
      },
      {
        "type": "news",
        "id": "news_004",
        "title": "微信小程序推出AI助手功能，智能客服新体验",
        "summary": "微信团队宣布在小程序平台集成AI助手功能，开发者可以快速为自己的小程序添加智能客服能力，提升用户服务体验...",
        "imageUrl": "https://images.unsplash.com/photo-1611162616305-c69b3fa7fbe0?w=400",
        "publishTime": "1天前",
        "source": "移动互联网",
        "readCount": 4280
      },
      {
        "type": "userDynamic",
        "id": "dynamic_004",
        "userName": "UI设计菲菲",
        "userAvatar": "https://images.unsplash.com/photo-1438761681033-6461ffad8d80?w=80",
        "content": "分享一个设计小技巧：在做移动端设计时，按钮的最小点击区域应该保持在44x44pt，这样能保证用户的操作体验。很多新手设计师容易忽略这个细节。",
        "images": [
          "https://images.unsplash.com/photo-1579403124614-197f69d8187b"
        ],
        "likeUsers": [
          {"userName": "王小花", "userId": "user_002"},
          {"userName": "陈小帅", "userId": "user_005"}
        ],
        "publishTime": "1天前",
        "likes": 234,
        "comments": 45
      },
      {
        "type": "video",
        "id": "video_004",
        "title": "Flutter 3.0 跨平台开发实战",
        "coverUrl": "https://images.unsplash.com/photo-1633356122544-f134324a6cee?w=400", 
        "videoUrl": "https://example.com/flutter_video.mp4",
        "duration": "25:15",
        "playCount": 1876,
        "author": "跨平台开发专家"
      }
    ],
    "pagination": {
      "page": 2,
      "page_size": 10,
      "total": 30,
      "total_pages": 3,
      "has_more": true
    }
  }
}
